# WaveFront *.obj file (generated by CINEMA 4D)

v -0.00193569937255 0.98910415172577 0.14720463752747
v -0.0975459292531 0.9884991645813 0.11556030809879
v -0.14730125665665 0.98895633220673 0.01636890694499
v -0.10586402565241 0.99107265472412 -0.08104228228331
v -0.02122580632567 0.99244451522827 -0.12084436416626
v 0.07605864107609 0.99056905508041 -0.11396541446447
v 0.12268122285604 0.9924008846283 0.00948824454099
v 0.09052013605833 0.99078780412674 0.10072542726994
v 0.05398765206337 0.9584681391716 0.28004312515259
v -0.04634724184871 0.95648419857025 0.28807973861694
v -0.15067693591118 0.95569628477097 0.25286567211151
v -0.23524154722691 0.95546591281891 0.17817498743534
v -0.28861063718796 0.95372116565704 0.08437912166119
v -0.28830435872078 0.9572936296463 -0.02166779153049
v -0.2551643550396 0.95847952365875 -0.12731131911278
v -0.17660760879517 0.95751518011093 -0.22797924280167
v -0.07671860605478 0.95840460062027 -0.27490895986557
v 0.02772381529212 0.95687341690063 -0.28917935490608
v 0.13100217282772 0.95978659391403 -0.2482904791832
v 0.21587944030762 0.96060889959335 -0.17500473558903
v 0.25972121953964 0.96237111091614 -0.07991756498814
v 0.26771041750908 0.96144247055054 0.06292553991079
v 0.2269664555788 0.96249008178711 0.14865824580193
v 0.15921603143215 0.95896345376968 0.23460465669632
v 0.11331770569086 0.90081059932709 0.4191652238369
v 0.01559105142951 0.89522218704224 0.44534727931023
v -0.08002527803183 0.89657300710678 0.43560636043549
v -0.21086810529232 0.89964681863785 0.3823222219944
v -0.29183334112167 0.89649856090546 0.33335211873055
v -0.36183965206146 0.8970730304718 0.25363779067993
v -0.41918954253197 0.89818459749222 0.13245685398579
v -0.43644165992737 0.89912503957748 0.03306201472878
v -0.42770501971245 0.90149676799774 -0.06612093746662
v -0.38181483745575 0.90353780984879 -0.19451709091663
v -0.32662773132324 0.90382766723633 -0.27642333507538
v -0.25066766142845 0.90616822242737 -0.34062433242798
v -0.12797640264034 0.90018612146378 -0.41627767682076
v -0.02831502072513 0.90608257055283 -0.42215245962143
v 0.07570690661669 0.90940833091736 -0.40895596146584
v 0.19603385031223 0.90914559364319 -0.36745753884315
v 0.28159609436989 0.91122686862946 -0.30061483383179
v 0.34155642986298 0.90953773260117 -0.2368128746748
v 0.40091794729233 0.90835011005402 -0.11901617795229
v 0.41428562998772 0.90981960296631 -0.02440779283643
v 0.40433657169342 0.91119074821472 0.07901526242495
v 0.35999763011932 0.90793287754059 0.21461552381516
v 0.30392283201218 0.90617656707764 0.29406630992889
v 0.23800845444202 0.90374678373337 0.35580024123192
v 0.13896064460278 0.82235836982727 0.55173969268799
v 0.01714418455958 0.82237821817398 0.56868278980255
v -0.09593903273344 0.81029349565506 0.57811778783798
v -0.29544696211815 0.808837890625 0.5084216594696
v -0.3801284134388 0.81273454427719 0.44154840707779
v -0.45689022541046 0.81374871730804 0.35925531387329
v -0.54001897573471 0.82158958911896 0.18267470598221
v -0.56537330150604 0.82360291481018 0.04507000744343
v -0.5671266913414 0.81370663642883 -0.12747076153755
v -0.51843339204788 0.81074076890945 -0.27189376950264
v -0.43750658631325 0.82083433866501 -0.36717703938484
v -0.30829739570618 0.8259117603302 -0.47204074263573
v -0.18547262251377 0.8263703584671 -0.53170663118362
v -0.03878567740321 0.83110815286636 -0.55475664138794
v 0.11135374009609 0.83697932958603 -0.5357853770256
v 0.24500603973866 0.83738332986832 -0.48863205313683
v 0.36862078309059 0.84084242582321 -0.39636188745499
v 0.46618935465813 0.83704543113708 -0.28639563918114
v 0.52535355091095 0.83415108919144 -0.16791559755802
v 0.55297857522964 0.83292150497437 -0.02136438339949
v 0.54130113124847 0.82842630147934 0.14388513565063
v 0.48916080594063 0.82865053415298 0.27213963866234
v 0.40623500943184 0.8186182975769 0.40600150823593
v 0.2880891263485 0.81633794307709 0.5005966424942
v 0.21196886897087 0.72590577602386 0.65431642532349
v 0.08445991575718 0.71464371681213 0.69437092542648
v -0.04763516783714 0.71694028377533 0.69550520181656
v -0.1666321605444 0.71019303798676 0.68400257825851
v -0.2918122112751 0.71592074632645 0.63427370786667
v -0.41759452223778 0.71942657232285 0.55501383543015
v -0.52118986845016 0.71883231401443 0.46004495024681
v -0.58836597204208 0.72151976823807 0.36501348018646
v -0.64667600393295 0.72370553016663 0.2409576177597
v -0.67947715520859 0.72656005620956 0.10208487510681
v -0.69955891370773 0.71356028318405 -0.03806611523032
v -0.67829221487045 0.71654713153839 -0.16272692382336
v -0.62705719470978 0.72727018594742 -0.27906537055969
v -0.55507749319077 0.72848474979401 -0.40149581432343
v -0.48605197668076 0.72990852594376 -0.4806110560894
v -0.3571192920208 0.73116183280945 -0.58126431703568
v -0.23676833510399 0.7300813794136 -0.64103204011917
v -0.09240005910397 0.73409473896027 -0.67273110151291
v 0.01553325727582 0.73752623796463 -0.67513984441757
v 0.15958088636398 0.7330334186554 -0.66120791435242
v 0.28903478384018 0.74255359172821 -0.60421282052994
v 0.41254138946533 0.7469807267189 -0.52137261629105
v 0.49160507321358 0.74351179599762 -0.45333725214005
v 0.5766014456749 0.74591898918152 -0.33337014913559
v 0.63561147451401 0.74517923593521 -0.20175758004189
v 0.66987764835358 0.73997700214386 -0.0608119443059
v 0.67470794916153 0.73752212524414 0.02881564386189
v 0.64915645122528 0.74158400297165 0.1692603379488
v 0.60108351707458 0.73691415786743 0.30928349494934
v 0.51558631658554 0.73334747552872 0.44313925504684
v 0.44657608866692 0.73478972911835 0.51054275035858
v 0.33472481369972 0.73812127113342 0.58577835559845
v 0.25061279535294 0.62302589416504 0.74096691608429
v 0.10006980597973 0.60508149862289 0.78984969854355
v -0.04654298722744 0.61038959026337 0.7907327413559
v -0.20984084904194 0.61305701732636 0.76166129112244
v -0.3321441411972 0.61837154626846 0.7122477889061
v -0.45819190144539 0.60442566871643 0.65171295404434
v -0.59334826469421 0.5971674323082 0.53974890708923
v -0.68667221069336 0.60403680801392 0.40450069308281
v -0.7416650056839 0.61098951101303 0.27681186795235
v -0.78791958093643 0.60538691282272 0.11264834553003
v -0.79780966043472 0.60160291194916 -0.03966956585646
v -0.77034312486649 0.60771578550339 -0.19301031529903
v -0.72063040733337 0.61212360858917 -0.32557126879692
v -0.62921178340912 0.62284070253372 -0.46493223309517
v -0.55410927534103 0.62753438949585 -0.54695838689804
v -0.39232090115547 0.62388277053833 -0.67591023445129
v -0.26891285181046 0.62562525272369 -0.73231065273285
v -0.10443602502346 0.63030755519867 -0.76928895711899
v 0.00175039400347 0.62649720907211 -0.77942168712616
v 0.19206160306931 0.62087750434875 -0.76001536846161
v 0.32894849777222 0.62196522951126 -0.71059983968735
v 0.47334533929825 0.62827867269516 -0.61742216348648
v 0.56848400831223 0.63323879241943 -0.52519953250885
v 0.67552310228348 0.63102215528488 -0.38141790032387
v 0.73200047016144 0.63607776165009 -0.24409091472626
v 0.77677446603775 0.62443852424622 -0.08184129744768
v 0.78181505203247 0.62305837869644 0.02373919822276
v 0.7513445019722 0.62585884332657 0.20924177765846
v 0.70093685388565 0.6242139339447 0.34502825140953
v 0.60016977787018 0.6327822804451 0.48926761746407
v 0.52408355474472 0.63884431123734 0.56321787834167
v 0.39291232824326 0.63065594434738 0.66924804449081
v 0.2934256196022 0.50289136171341 0.81302011013031
v 0.08546940982342 0.48766520619392 0.86883693933487
v -0.04353014007211 0.48429298400879 0.87382233142853
v -0.22959826886654 0.50266593694687 0.83343362808228
v -0.37350165843964 0.48999691009521 0.78765445947647
v -0.53730267286301 0.48854041099548 0.68748390674591
v -0.64342141151428 0.46537175774574 0.60781413316727
v -0.74203461408615 0.47686830163002 0.47114899754524
v -0.81864100694656 0.48261585831642 0.31130182743073
v -0.87011402845383 0.47957924008369 0.11360212415457
v -0.87717896699905 0.47938016057014 -0.02741787023842
v -0.85115551948547 0.47348684072495 -0.22659347951412
v -0.79861485958099 0.48492336273193 -0.35645991563797
v -0.69609034061432 0.4966427385807 -0.51846331357956
v -0.61398285627365 0.49020555615425 -0.61864656209946
v -0.45179200172424 0.48690953850746 -0.74753135442734
v -0.28171393275261 0.50025016069412 -0.81877166032791
v -0.11476228386164 0.49977722764015 -0.85851758718491
v 0.01968967728317 0.50525224208832 -0.86274713277817
v 0.21821422874928 0.49091494083405 -0.84343653917313
v 0.35476034879684 0.490383207798 -0.79603356122971
v 0.53391790390015 0.49507340788841 -0.68544435501099
v 0.6343874335289 0.50482875108719 -0.58540630340576
v 0.74663746356964 0.50236487388611 -0.43607577681541
v 0.81370913982391 0.51587480306625 -0.26786309480667
v 0.86164730787277 0.49894300103188 -0.09284303337336
v 0.868015229702 0.49551302194595 0.03188041225076
v 0.83210551738739 0.50001364946365 0.2399724572897
v 0.78424316644669 0.49312090873718 0.37655606865883
v 0.68839710950851 0.49138757586479 0.53352385759354
v 0.59574919939041 0.48711988329887 0.63858991861343
v 0.44542041420937 0.48629811406136 0.75174117088318
v 0.18901853263378 0.3480518758297 0.91822218894958
v -0.05301155894995 0.35915043950081 0.93177300691605
v -0.26319423317909 0.35828942060471 0.89574408531189
v -0.49516618251801 0.3426339328289 0.79838114976883
v -0.68570870161057 0.34708046913147 0.63979583978653
v -0.81684827804565 0.33956378698349 0.4663211107254
v -0.91675692796707 0.33192563056946 0.22222097218037
v -0.94658583402634 0.32173040509224 -0.02155872806907
v -0.90806150436401 0.33734512329102 -0.24823889136314
v -0.80394470691681 0.35221895575523 -0.47918131947517
v -0.66317754983902 0.33528977632523 -0.66916090250015
v -0.45963290333748 0.34599053859711 -0.81794148683548
v -0.23003314435482 0.35190856456757 -0.90732860565186
v 0.02601245418191 0.35548225045204 -0.93432104587555
v 0.24416036903858 0.35285380482674 -0.90326070785522
v 0.47537124156952 0.34259018301964 -0.81034201383591
v 0.68306720256805 0.35945829749107 -0.63577431440353
v 0.81424659490585 0.36354470252991 -0.4525899887085
v 0.90610724687576 0.36638495326042 -0.21149930357933
v 0.93460357189178 0.35417339205742 0.032823972404
v 0.89822226762772 0.35275062918663 0.26222869753838
v 0.79881954193115 0.35912865400314 0.48261159658432
v 0.64857643842697 0.35646542906761 0.67251837253571
v 0.46891191601753 0.36149218678474 0.80588150024414
v 0.33176985383034 0.20713169872761 0.92033976316452
v 0.09178296476603 0.21565595269203 0.97214633226395
v -0.15965551137924 0.22509537637234 0.96116709709167
v -0.42669227719307 0.20779526233673 0.8802016377449
v -0.61702156066895 0.20084476470947 0.76088488101959
v -0.7961710691452 0.19939613342285 0.57127302885056
v -0.9174211025238 0.18902064859867 0.35015669465065
v -0.97506856918335 0.18859413266182 0.11693430691957
v -0.9708389043808 0.19026140868664 -0.14585067331791
v -0.89262866973877 0.18402019143105 -0.41152235865593
v -0.77841907739639 0.18779970705509 -0.59899491071701
v -0.58441126346588 0.1881111562252 -0.78935271501541
v -0.33839744329453 0.20032502710819 -0.91943299770355
v -0.13709598779678 0.19208616018295 -0.97175490856171
v 0.15497839450836 0.21269574761391 -0.96474987268448
v 0.39762511849403 0.19682833552361 -0.89618796110153
v 0.60489875078201 0.21518141031265 -0.76667755842209
v 0.79212099313736 0.21567356586456 -0.57098966836929
v 0.92741167545319 0.20334956049919 -0.31393724679947
v 0.9682902097702 0.22706724703312 -0.10418549180031
v 0.96472489833832 0.21382421255112 0.15357437729836
v 0.88068968057632 0.21724870800972 0.4209378361702
v 0.75534266233444 0.20591124892235 0.62213987112045
v 0.57754290103912 0.20782580971718 0.78946352005005
v 0.21321621537209 0.07040676474571 0.97446489334106
v -0.05561924725771 0.09907557070255 0.99352431297302
v -0.28867620229721 0.06537325680256 0.95519238710403
v -0.52420318126678 0.05817756056786 0.8496036529541
v -0.72941428422928 0.05249086022377 0.68205535411835
v -0.8707047700882 0.04411159455776 0.48982384800911
v -0.97026413679123 0.05343764275312 0.23607617616653
v -0.99898928403854 0.03104359656572 -0.03250807151198
v -0.96829396486282 0.02266544476151 -0.24878312647343
v -0.85326689481735 0.03443619981408 -0.52033632993698
v -0.69200390577316 0.02649334259331 -0.72140753269196
v -0.50194495916367 0.03152463212609 -0.86432492733002
v -0.23089461028576 0.04588912054896 -0.97189605236053
v 0.02263580076396 0.04115239158273 -0.99889647960663
v 0.26698699593544 0.04629725962877 -0.96258741617203
v 0.51470291614532 0.03705549612641 -0.85656750202179
v 0.73697829246521 0.05484074354172 -0.67368799448013
v 0.87935745716095 0.07301612943411 -0.47053074836731
v 0.97169464826584 0.05745661631227 -0.22914670407772
v 0.99363952875137 0.10054925084114 0.05069863423705
v 0.95735245943069 0.07146959006786 0.27994346618652
v 0.84473615884781 0.07169610261917 0.53035885095596
v 0.68151926994324 0.06547194719315 0.72886550426483
v 0.51313251256943 0.06373645365238 0.85593968629837
# 240 vertices

o dome_240.obj
f 50 51 74
f 75 51 76
f 107 139 138
f 140 139 108
f 225 224 201
f 225 201 202
f 220 219 196
f 201 224 200
f 96 97 128
f 75 107 106
f 76 108 107
f 225 202 226
f 14 13 3
f 197 221 220
f 197 172 173
f 196 172 197
f 197 220 196
f 96 66 67
f 75 76 107
f 173 172 142
f 110 111 142
f 228 227 204
f 107 138 106
f 106 137 105
f 138 137 106
f 231 230 207
f 207 208 231
f 74 75 106
f 208 232 231
f 183 208 207
f 200 224 223
f 223 199 200
f 168 136 105
f 222 199 223
f 202 201 177
f 178 202 177
f 133 164 132
f 237 236 213
f 192 193 216
f 10 27 26
f 26 25 10
f 219 218 195
f 196 219 195
f 198 199 222
f 222 221 198
f 198 221 197
f 197 173 198
f 142 111 143
f 143 173 142
f 182 156 183
f 183 207 182
f 73 49 50
f 209 232 208
f 233 232 209
f 184 185 209
f 184 208 183
f 209 208 184
f 176 201 200
f 177 201 176
f 226 202 203
f 203 202 178
f 203 227 226
f 204 227 203
f 119 151 150
f 177 148 149
f 178 177 149
f 150 178 149
f 149 117 118
f 85 84 58
f 132 131 100
f 240 239 216
f 216 193 240
f 240 193 217
f 67 97 96
f 76 51 52
f 76 77 108
f 105 73 74
f 106 105 74
f 73 50 74
f 165 164 133
f 213 188 189
f 189 164 165
f 165 190 189
f 215 239 238
f 216 239 215
f 33 57 56
f 78 79 110
f 51 27 28
f 80 54 55
f 55 54 31
f 56 81 55
f 7 5 4
f 7 8 21
f 4 3 2
f 2 11 10
f 2 8 7
f 7 4 2
f 33 14 15
f 15 14 3
f 15 3 4
f 12 13 30
f 12 11 2
f 3 13 12
f 2 3 12
f 78 77 53
f 52 77 76
f 28 27 11
f 28 52 51
f 137 192 168
f 228 204 205
f 205 204 180
f 205 229 228
f 180 181 205
f 206 181 182
f 206 229 205
f 205 181 206
f 206 230 229
f 207 230 206
f 182 207 206
f 122 123 154
f 182 154 155
f 212 236 235
f 187 188 212
f 213 236 212
f 212 188 213
f 162 188 187
f 124 123 92
f 92 93 124
f 156 124 125
f 183 156 157
f 184 183 157
f 157 156 125
f 91 123 122
f 64 65 93
f 38 62 61
f 147 148 176
f 148 116 117
f 179 204 203
f 180 204 179
f 203 178 179
f 179 151 152
f 152 180 179
f 150 151 178
f 58 34 35
f 87 88 119
f 60 88 87
f 118 117 86
f 117 85 86
f 118 119 150
f 149 148 117
f 118 150 149
f 41 40 20
f 38 37 18
f 17 5 18
f 60 36 37
f 36 17 37
f 129 161 160
f 38 61 37
f 134 133 102
f 101 133 132
f 101 132 100
f 167 166 135
f 168 191 167
f 101 70 71
f 102 103 134
f 131 99 100
f 189 190 214
f 238 237 214
f 214 237 213
f 214 213 189
f 215 238 214
f 214 190 215
f 31 32 55
f 30 13 31
f 95 66 96
f 174 199 198
f 198 173 174
f 79 54 80
f 53 54 78
f 78 110 109
f 111 79 80
f 112 111 80
f 113 145 144
f 77 52 53
f 81 80 55
f 112 80 81
f 9 1 2
f 26 49 25
f 25 49 72
f 10 9 2
f 51 75 74
f 1 8 2
f 42 21 43
f 20 21 42
f 41 20 42
f 42 43 66
f 42 65 41
f 66 65 42
f 7 20 6
f 1 24 23
f 6 5 7
f 20 19 6
f 18 5 6
f 6 19 18
f 15 4 16
f 16 5 17
f 4 5 16
f 16 17 36
f 16 36 35
f 35 34 16
f 29 28 12
f 27 10 11
f 12 30 29
f 30 53 29
f 54 30 31
f 28 11 12
f 29 52 28
f 169 193 192
f 169 192 137
f 72 49 104
f 90 121 89
f 90 91 122
f 153 122 154
f 154 181 153
f 153 181 180
f 153 180 152
f 154 123 155
f 62 90 89
f 155 156 182
f 155 123 124
f 124 156 155
f 186 187 211
f 212 235 211
f 211 187 212
f 210 185 186
f 209 185 210
f 210 233 209
f 210 186 211
f 163 188 162
f 163 164 188
f 167 191 166
f 132 164 163
f 161 187 186
f 162 187 161
f 130 162 161
f 64 92 63
f 93 125 124
f 63 62 39
f 126 127 158
f 94 95 126
f 125 93 94
f 40 19 20
f 145 114 146
f 146 114 115
f 147 176 146
f 59 60 87
f 59 36 60
f 35 36 59
f 85 117 116
f 85 58 86
f 87 118 86
f 148 177 176
f 86 58 59
f 59 87 86
f 85 116 84
f 84 57 58
f 84 116 115
f 115 116 147
f 115 147 146
f 57 83 82
f 34 33 15
f 63 91 62
f 58 57 34
f 34 57 33
f 59 58 35
f 87 119 118
f 62 38 39
f 61 60 37
f 61 62 89
f 8 23 22
f 61 88 60
f 89 88 61
f 98 130 129
f 166 165 134
f 166 134 135
f 166 190 165
f 191 216 215
f 191 192 216
f 165 133 134
f 166 191 190
f 215 190 191
f 168 192 191
f 133 101 102
f 33 56 32
f 14 32 31
f 31 13 14
f 34 15 16
f 32 14 33
f 144 145 174
f 112 113 144
f 144 173 143
f 174 173 144
f 143 111 112
f 110 142 141
f 142 172 141
f 141 109 110
f 139 107 108
f 78 109 77
f 79 111 110
f 54 79 78
f 32 56 55
f 112 144 143
f 113 112 81
f 113 114 145
f 113 82 114
f 81 82 113
f 71 70 47
f 71 72 103
f 70 101 100
f 103 102 71
f 25 72 48
f 48 72 71
f 71 47 48
f 68 67 44
f 45 68 44
f 43 21 22
f 7 21 20
f 9 25 48
f 8 22 21
f 22 45 44
f 69 68 45
f 69 70 100
f 67 43 44
f 100 99 69
f 69 99 68
f 46 23 24
f 22 23 45
f 71 102 101
f 47 70 46
f 46 70 69
f 69 45 46
f 127 159 158
f 94 65 95
f 95 65 66
f 217 193 194
f 194 193 169
f 194 218 217
f 194 169 170
f 195 218 194
f 170 195 194
f 50 49 26
f 26 27 50
f 50 27 51
f 90 62 91
f 53 30 54
f 63 92 91
f 92 123 91
f 90 122 121
f 152 120 121
f 121 122 153
f 211 235 234
f 210 211 234
f 49 73 104
f 234 233 210
f 131 162 130
f 163 162 131
f 131 132 163
f 164 189 188
f 161 186 160
f 186 185 160
f 160 185 159
f 159 127 128
f 39 38 18
f 40 64 63
f 18 19 39
f 39 40 63
f 157 125 126
f 94 126 125
f 158 184 157
f 126 158 157
f 158 185 184
f 159 185 158
f 176 200 175
f 146 176 175
f 200 199 175
f 175 145 146
f 175 199 174
f 174 145 175
f 56 57 82
f 83 57 84
f 56 82 81
f 114 82 83
f 115 114 83
f 84 115 83
f 116 148 147
f 37 17 18
f 103 72 104
f 23 46 45
f 48 47 24
f 23 8 1
f 24 9 48
f 24 47 46
f 1 9 24
f 25 9 10
f 153 152 121
f 151 179 178
f 119 88 120
f 120 88 89
f 120 89 121
f 120 151 119
f 152 151 120
f 129 130 161
f 68 98 97
f 66 43 67
f 98 99 130
f 128 160 159
f 68 99 98
f 98 129 97
f 99 131 130
f 67 68 97
f 97 129 128
f 41 65 64
f 39 19 40
f 64 93 92
f 40 41 64
f 65 94 93
f 136 135 104
f 103 135 134
f 167 135 136
f 136 168 167
f 137 168 105
f 135 103 104
f 136 73 105
f 104 73 136
f 140 109 141
f 140 170 139
f 170 169 138
f 139 170 138
f 169 137 138
f 128 129 160
f 53 52 29
f 95 127 126
f 77 109 108
f 108 109 140
f 171 195 170
f 171 170 140
f 171 196 195
f 140 141 171
f 171 172 196
f 141 172 171
f 96 127 95
f 128 127 96
f 182 181 154
f 22 44 43

